<?xml version="1.0" encoding="utf-8"?>
<!-- Generator: Adobe Illustrator 23.0.4, SVG Export Plug-In . SVG Version: 6.00 Build 0)  -->
<svg version="1.1" id="Layer_1" xmlns="http://www.w3.org/2000/svg" xmlns:xlink="http://www.w3.org/1999/xlink" x="0px" y="0px"
	 viewBox="0 0 69.6 80" style="enable-background:new 0 0 69.6 80;" xml:space="preserve">
<style type="text/css">
	.st0{fill:#E55F46;}
	.st1{fill:#EEEEEE;}
	.st2{fill:#FCA326;}
</style>
<path class="st0" d="M65.7,57.9V22.1L34.8,4.2L3.9,22.1v35.8l30.9,17.9L65.7,57.9z"/>
<path class="st1" d="M34.8,77.4c-0.3,0-0.6-0.1-0.8-0.2L3.1,59.3c-0.5-0.3-0.8-0.8-0.8-1.4V22.1c0-0.6,0.3-1.1,0.8-1.4L34,2.8
	c0.5-0.3,1.1-0.3,1.6,0l30.9,17.9c0.5,0.3,0.8,0.8,0.8,1.4v35.8c0,0.6-0.3,1.1-0.8,1.4L35.6,77.2C35.4,77.3,35.1,77.4,34.8,77.4
	 M5.5,57l29.3,17l29.3-17V23l-29.3-17L5.5,23V57 M65.7,57.9L65.7,57.9L65.7,57.9"/>
<g>
	<path class="st2" d="M53.4,45.6V33.6c1.8-0.4,3.2-2,3.2-3.9c0-2.2-1.8-4-4.1-4c-1.2,0-2.3,0.5-3,1.3l-11-6.4
		c0.1-0.4,0.2-0.8,0.2-1.3c0-2.2-1.8-4-4.1-4c-2.2,0-4.1,1.8-4.1,4c0,0.5,0.1,0.9,0.2,1.3L20,27c-0.7-0.8-1.8-1.3-3-1.3
		c-2.2,0-4.1,1.8-4.1,4c0,1.9,1.4,3.5,3.2,3.9v12.1c-1.8,0.4-3.2,2-3.2,3.9c0,2.2,1.8,4,4.1,4c1.1,0,2.2-0.5,2.9-1.2l11.1,7
		c-0.2,0.4-0.3,0.9-0.3,1.4c0,2.2,1.8,4,4.1,4s4.1-1.8,4.1-4c0-0.5-0.1-1-0.3-1.4l11.1-7c0.7,0.8,1.8,1.2,2.9,1.2
		c2.2,0,4.1-1.8,4.1-4C56.7,47.6,55.3,46,53.4,45.6 M55,29.6c0,1-0.7,1.9-1.6,2.2c-0.1,0-0.3,0.1-0.4,0.1c0,0,0,0,0,0
		c-0.1,0-0.3,0-0.4,0s-0.3,0-0.4,0c0,0,0,0,0,0c-0.1,0-0.3-0.1-0.4-0.1c-0.9-0.3-1.6-1.2-1.6-2.2c0-0.2,0-0.3,0-0.4
		c0-0.1,0.1-0.3,0.1-0.4c0,0,0,0,0,0c0-0.1,0.1-0.2,0.2-0.3c0,0,0,0,0,0c0.1-0.1,0.1-0.2,0.2-0.3c0,0,0,0,0,0
		c0.1-0.1,0.2-0.2,0.3-0.3c0.4-0.3,1-0.5,1.5-0.5C54,27.3,55,28.3,55,29.6 M34.8,16.9c1.3,0,2.4,1.1,2.4,2.4c0,0.2,0,0.3,0,0.4
		c0,0.1-0.1,0.3-0.1,0.4c0,0,0,0,0,0c0,0.1-0.1,0.2-0.2,0.3c0,0,0,0,0,0c-0.1,0.1-0.1,0.2-0.2,0.3c0,0,0,0,0,0
		c-0.1,0.1-0.2,0.2-0.3,0.3c-0.4,0.3-1,0.5-1.5,0.5s-1.1-0.2-1.5-0.5c-0.1-0.1-0.2-0.2-0.3-0.3c0,0,0,0,0,0
		c-0.1-0.1-0.2-0.2-0.2-0.3c0,0,0,0,0,0c-0.1-0.1-0.1-0.2-0.2-0.3c0,0,0,0,0,0c0-0.1-0.1-0.3-0.1-0.4c0-0.1,0-0.3,0-0.4
		C32.4,18,33.4,16.9,34.8,16.9 M14.5,29.6c0-1.3,1.1-2.4,2.4-2.4c0.6,0,1.1,0.2,1.5,0.5c0.1,0.1,0.2,0.2,0.3,0.3c0,0,0,0,0,0
		c0.1,0.1,0.2,0.2,0.2,0.3c0,0,0,0,0,0c0.1,0.1,0.1,0.2,0.2,0.3c0,0,0,0,0,0c0,0.1,0.1,0.3,0.1,0.4c0,0.1,0,0.3,0,0.4
		c0,1-0.7,1.9-1.6,2.2c-0.1,0-0.3,0.1-0.4,0.1c0,0,0,0,0,0c-0.1,0-0.3,0-0.4,0c-0.1,0-0.3,0-0.4,0c0,0,0,0,0,0
		c-0.1,0-0.3-0.1-0.4-0.1C15.2,31.6,14.5,30.7,14.5,29.6 M17,51.9c-1.3,0-2.4-1.1-2.4-2.4c0-1,0.7-1.9,1.6-2.2
		c0.1,0,0.3-0.1,0.4-0.1c0,0,0,0,0,0c0.1,0,0.3,0,0.4,0c0.1,0,0.3,0,0.4,0c0,0,0,0,0,0c0.1,0,0.3,0.1,0.4,0.1
		c0.9,0.3,1.6,1.2,1.6,2.2c0,0.2,0,0.4-0.1,0.5c-0.1,0.4-0.3,0.8-0.6,1.1c0,0,0,0,0,0c-0.1,0.1-0.2,0.2-0.3,0.3
		C18,51.7,17.5,51.9,17,51.9 M37.2,60.7c0,1.3-1.1,2.4-2.4,2.4s-2.4-1.1-2.4-2.4c0-0.2,0-0.4,0.1-0.5c0.1-0.4,0.3-0.8,0.6-1.1
		c0,0,0,0,0,0c0.1-0.1,0.2-0.2,0.3-0.3c0.4-0.3,0.9-0.5,1.5-0.5c0.6,0,1.1,0.2,1.5,0.5c0.1,0.1,0.2,0.2,0.3,0.3c0,0,0,0,0,0
		c0.3,0.3,0.5,0.7,0.6,1.1C37.2,60.3,37.2,60.5,37.2,60.7 M37.7,57.9c-0.7-0.8-1.8-1.2-2.9-1.2s-2.2,0.5-2.9,1.2l-11.1-7
		c0.2-0.4,0.3-0.9,0.3-1.4c0-1.9-1.4-3.5-3.2-3.9V33.6c1.8-0.4,3.2-2,3.2-3.9c0-0.5-0.1-0.9-0.2-1.3l11-6.4c0.7,0.8,1.8,1.3,3,1.3
		c1.2,0,2.3-0.5,3-1.3l11,6.4c-0.1,0.4-0.2,0.8-0.2,1.3c0,1.9,1.4,3.5,3.2,3.9v12.1c-1.8,0.4-3.2,2-3.2,3.9c0,0.5,0.1,1,0.3,1.4
		L37.7,57.9 M52.6,51.9c-0.6,0-1.1-0.2-1.5-0.5c-0.1-0.1-0.2-0.2-0.3-0.3c0,0,0,0,0,0c-0.3-0.3-0.5-0.7-0.6-1.1
		c0-0.2-0.1-0.3-0.1-0.5c0-1,0.7-1.9,1.6-2.2c0.1,0,0.3-0.1,0.4-0.1c0,0,0,0,0,0c0.1,0,0.3,0,0.4,0c0.1,0,0.3,0,0.4,0c0,0,0,0,0,0
		c0.1,0,0.3,0.1,0.4,0.1c0.9,0.3,1.6,1.2,1.6,2.2C55,50.9,54,51.9,52.6,51.9"/>
	<path class="st2" d="M40.6,42.1c-0.8-0.2-1.8-0.3-2.9-1.2c-0.1-0.1-0.2-0.1-0.2-0.1c-0.1,0-0.1,0-0.2,0c-0.1,0.1-1.1,0.9-2.5,0.9
		c0,0,0,0,0,0c0,0,0,0,0,0c-1.4,0-2.3-0.9-2.5-0.9c-0.1,0-0.1,0-0.2,0c-0.1,0-0.2,0-0.3,0.1c-1.1,0.8-2.1,1-2.9,1.2
		c-1.1,0.2-2.1,0.4-2.5,2.1c0,0.1,0,0.2,0.1,0.3c1.8,2.6,4.1,5.4,8.3,5.5c0,0,0,0,0,0s0,0,0,0c0,0,0,0,0,0c0,0,0,0,0,0
		c4.2-0.1,6.5-2.9,8.3-5.5c0.1-0.1,0.1-0.2,0.1-0.3C42.7,42.5,41.7,42.3,40.6,42.1"/>
	<path class="st2" d="M34.7,39.5c0.9,0,1.6-0.3,2.3-1c1.2-1.2,1.7-3.3,1.7-4.1c0-3-1.3-4.5-3.9-4.5c-1.2,0-2.1,0.3-2.8,1
		c-0.8,0.8-1.1,2-1.1,3.5C30.9,35.5,31.6,39.5,34.7,39.5"/>
</g>
</svg>
